Comparing pollution across streams in the US
…
1 Introduction to the dataset

This dataset was compiled by the US Environmental Protection Agency (EPA) and each row presents a stream that was randomly sampled across the US to evaluate stream health and nutrient pollution. These data present measurements on the levels of nitrogen, henceforth also denoted by N, and benthic macroinvertebrates as a metric of stream biodiversity. We will be using these data to complement the readings.

### Loading in packages
library(ggplot2) # package for plotting
library(dplyr) # package for manipulating data

### Reading in the data
EPAdf <- readr::read_tsv("https://raw.githubusercontent.com/charlottehchang/BIOL104PO/master/data/EPAstreams.tsv")

### Display the first few rows of the data
EPAdf

## # A tibble: 1,372 x 5
##    Region State   County      Nitrogen   MMI
##     <dbl> <chr>   <chr>          <dbl> <dbl>
##  1      1 Maine   Aroostook        150  67.7
##  2      1 Maine   Aroostook        245  69.8
##  3      1 Maine   Aroostook        351  67.7
##  4      1 Maine   Aroostook        401  86.0
##  5      1 Maine   Piscataquis      268  75.4
##  6      1 Maine   Aroostook        439  42.9
##  7      1 Maine   Somerset         285  76.1
##  8      1 Maine   Somerset         275  81.9
##  9      1 Maine   Aroostook        715  51.5
## 10      1 Vermont Franklin         405  32.6
## # … with 1,362 more rows
…
For each stream, determine if its N levels exceed the limit (use mutate to create a new column called HighN)

If a stream’s nitrogen level exceeds the region’s N threshold, then we will assign "High" to the HighN column; otherwise it will be labelled as "Low". Let "High" denote streams that are clearly experiencing N pollution.

### Add on a column that takes all of the new columns from maxN 
### (MaxNitrogen and RegionName) and joins them to the EPAdf data table.
### This way, we can see for each stream in each region if 
### its N level is too high.
EPAdf <- EPAdf %>%
  left_join(maxN,by=c("Region"="Region"))

### View the columns Region, Nitrogen, and MaxNitrogen
EPAdf[,c("Region","Nitrogen","MaxNitrogen")] # equivalent to:

## # A tibble: 1,372 x 3
##    Region Nitrogen MaxNitrogen
##     <dbl>    <dbl>       <dbl>
##  1      1      150         380
##  2      1      245         380
##  3      1      351         380
##  4      1      401         380
##  5      1      268         380
##  6      1      439         380
##  7      1      285         380
##  8      1      275         380
##  9      1      715         380
## 10      1      405         380
## # … with 1,362 more rows

# dplyr::select(EPAdf, Region, Nitrogen, MaxNitrogen) # uncomment to run to see that it produces the same output

### Create a new column that tracks if each stream's N levels are too high
EPAdf <- EPAdf %>%
  mutate(HighN = ifelse(Nitrogen>MaxNitrogen,"High","Low")) # the ifelse function (?ifelse) assigns the value 1 if the stream's N level is too high (>MaxNitrogen). Otherwise, if the stream's N level is less than or equal to MaxNitrogen, that stream gets a 0.

### View the columns Region, Nitrogen, Max nitrogen in that region, and High nitrogen
  # A value of 1 for High nitrogen indicates that this stream has too much nitrogen
EPAdf %>%
  dplyr::select(Region,Nitrogen,MaxNitrogen,HighN)

## # A tibble: 1,372 x 4
##    Region Nitrogen MaxNitrogen HighN
##     <dbl>    <dbl>       <dbl> <chr>
##  1      1      150         380 Low  
##  2      1      245         380 Low  
##  3      1      351         380 Low  
##  4      1      401         380 High 
##  5      1      268         380 Low  
##  6      1      439         380 High 
##  7      1      285         380 Low  
##  8      1      275         380 Low  
##  9      1      715         380 High 
## 10      1      405         380 High 
## # … with 1,362 more rows
…
