Combining social and ecological data
…
versus: inner_join(dt1, dt2new)

notice that inner_join(dt1, dt2) tells you that it didn’t find any matches! It produces a table that has 0 x 3 dimensions, or 0 rows because it didn’t find any matching records across dt1 and dt2.

2 Adding socioeconomic data to the Provided Datasheet

As an additional illustration of data merging, I will illustrate below how one can add on socio-economic data from the USDA and the US Census to the Provided Datasheet. In the code chunk below, I pull in data from the GitHub repository that stores the class R tutorials.

### Read in data
CA_county_data <- readr::read_tsv("https://raw.githubusercontent.com/charlottehchang/BIOL104PO/master/data/CA_protectedareas_datasheet.tsv") # this is a link to the Provided Datasheet for the class project
  ### Take a look at the first few rows of the data table
CA_county_data

## # A tibble: 58 x 26
##    County Birds Trees Reptiles Mammals area_of_county_… lat_county_cent…
##    <chr>  <dbl> <dbl>    <dbl>   <dbl>            <dbl>            <dbl>
##  1 Alame…   235    30       27      54          212722.             37.7
##  2 Alpine   174    29       15      71          192485              38.6
##  3 Amador   172    41       21      69          156940.             38.4
##  4 Butte    184    45       21      67          434375.             39.7
##  5 Calav…   173    39       21      66          268563.             38.2
##  6 Colusa   189    40       20      58          299495.             39.2
##  7 Contr…   233    35       25      57          208175              37.9
##  8 Del N…   199    56       19      71          318486.             41.7
##  9 El Do…   174    41       21      71          462662.             38.8
## 10 Fresno   173    38       25      72         1556855.             36.8
## # … with 48 more rows, and 19 more variables: long_county_centroid_x <dbl>,
## #   PAs_gapstatus1_HAs <dbl>, PAs_gapstatus2_HAs <dbl>,
## #   PAs_gapstatus3_HAs <dbl>, PAs_gapstatus4_HAs <dbl>,
## #   PAs_gapstatus1thru4_HAs <dbl>, PAs_gapstatus1_Ct <dbl>,
## #   PAs_gapstatus2_Ct <dbl>, PAs_gapstatus3_Ct <dbl>, PAs_gapstatus4_Ct <dbl>,
## #   PAs_gapstatus1thru4_Cts <dbl>, farmland_value_USDperHA <dbl>,
## #   farmland_area_HAs <dbl>, iucn_NT_status <dbl>, iucn_VU_status <dbl>,
## #   iucn_EN_status <dbl>, iucn_CR_status <dbl>,
## #   iucn_threat_count_species <dbl>, Region <chr>

### Data on socio-economic statuses in California
CA_county_SES <- readr::read_tsv("https://raw.githubusercontent.com/charlottehchang/BIOL104PO/master/data/CA_ses.tsv") # URL for spreadsheet storing socioeconomic data by county in California
  ### Take a look at the first few rows of the data table
CA_county_SES

## # A tibble: 58 x 6
##    State County              rurban PctPoverty PctChildPoverty MedianHHincome
##    <chr> <chr>               <chr>       <dbl>           <dbl>          <dbl>
##  1 CA    Alameda County      Urban         8.9             9.8         107589
##  2 CA    Alpine County       Rural        17.2            29.6          58112
##  3 CA    Amador County       Rural         9.8            12.5          62640
##  4 CA    Butte County        Urban        16.1            16.1          58394
##  5 CA    Calaveras County    Rural        12.1            19.6          68248
##  6 CA    Colusa County       Rural        12              15.3          59048
##  7 CA    Contra Costa County Urban         7.9             9.9         106555
##  8 CA    Del Norte County    Rural        17.9            25.8          48979
##  9 CA    El Dorado County    Urban         8.7             9.1          86202
## 10 CA    Fresno County       Urban        20.5            29            56926
## # … with 48 more rows

### Data on racial composition in California
CA_county_demog <- readr::read_tsv("https://raw.githubusercontent.com/charlottehchang/BIOL104PO/master/data/CA_census.tsv")
  ### Take a look at the first few rows of the data table
CA_county_demog

## # A tibble: 58 x 10
##    STNAME  CTYNAME    TOT_POP    BAC    IAC    AAC     NAC LATINX NHLATINX    WA
##    <chr>   <chr>        <dbl>  <dbl>  <dbl>  <dbl>   <dbl>  <dbl>    <dbl> <dbl>
##  1 Califo… Alameda C… 1650950 0.133  0.0235 0.334  0.0162   0.224    0.776 0.493
##  2 Califo… Alpine Co…    1047 0.0143 0.233  0.0210 0.00287  0.100    0.900 0.729
##  3 Califo… Amador Co…   37429 0.0289 0.0418 0.0244 0.00532  0.134    0.866 0.900
##  4 Califo… Butte Cou…  226231 0.0296 0.0445 0.0616 0.00653  0.160    0.840 0.858
##  5 Califo… Calaveras…   45322 0.0159 0.0390 0.0259 0.00519  0.116    0.884 0.914
##  6 Califo… Colusa Co…   21496 0.0203 0.0377 0.0228 0.00791  0.587    0.413 0.911
##  7 Califo… Contra Co… 1137268 0.111  0.0221 0.202  0.0113   0.254    0.746 0.654
##  8 Califo… Del Norte…   27382 0.0424 0.127  0.0452 0.00427  0.196    0.804 0.782
##  9 Califo… El Dorado…  185976 0.0165 0.0278 0.0599 0.00545  0.127    0.873 0.890
## 10 Califo… Fresno Co…  976830 0.0679 0.0421 0.121  0.00517  0.527    0.473 0.764
## # … with 48 more rows
…
